{
   "name":"heart_stroke_predictor_8",
   "target_environment":"DEV",
   "components":{
      "model_evaluation":{
         "build_version" : 2,
         "run_parameters":{
            "driver_memory":"512m",
            "executor_memory":"512m",
            "executor_cores":1,
            "num_executors":1,
            "xpresso_run_name":""
         }
      }
   }
}
