{
   "name":"kaggle_stroke_predictor",
   "components":{
      "model_evaluation":{
         "branch":"bugfix/unending-jobs",
         "description":"build from bugfix/unending-jobs with stroke predictor."
      }
   },
   "pipelines": {
      "feature_engg_and_classifier_pipeline": {
         "branch":"bugfix/unending-jobs",
         "description": "build from bugfix/unending-jobs with stroke predictor."
      }
   }
}
