{
   "name":"kaggle_stroke_predictor_pre2",
   "target_environment":"DEV",
   "components":{
      "model_evaluation":{
         "build_version" : 2,
         "run_parameters":{
            "driver_memory":"512m",
            "executor_memory":"512m",
            "executor_cores":1,
            "num_executors":1,
            "run_name":"kaggle_stroke_predictor_pre2_2a",
            "project_name":"kaggle_stroke_predictor_pre2",
            "pipeline_name":"feature_engg_and_classifier_pipeline",
            "pipeline_version":2
         }
      }
   }
}
